1 10 20
100 200 125
201 210 89
900 1000 174
1 1 1
2 2 2
3 3 8
4 4 3
1 1000 179
1 10000 262
1 100000 351
1 1000000 525
999999 999999 259
92 478 144
52 522 144
73 657 145
55 66 113
12 34 112
45 56 113
67 78 116
78 89 111
99 111 114
123 456 144
678 789 171
123 321 131
234 345 144
94 143 122
192 293 128
374 596 142
384 503 142
1038 1039 63
200 234 128
597 837 171
893 900 117
1245 1300 177
4568 5600 236
6234 7234 257
8999 9678 260
9999 12000 268
15738 16789 266
16777 16789 266
17888 18999 261
19876 21345 274
22666 22789 238
25879 28129 308
35678 40834 306
56789 70000 335
71000 100000 351
122222 134567 344
166899 205000 365
267890 300000 407
311222 508666 449
678900 708000 504
700000 705000 504
899999 1000000 507
902345 1000000 507
577240 580134 359
335863 432676 449
103029 643685 509
663026 902626 525
202681 952357 525
46367 785899 509
220293 595693 470
889407 995712 507
482475 505497 426
402632 510419 449
388543 616985 470
774404 865806 525
245187 700654 509
506126 863304 525
540063 987130 525
194118 589561 470
122446 389504 443
46614 428829 449
116823 265293 443
234904 329030 407
242340 916325 525
82660 373008 443
182751 413737 449
97010 219498 386
787222 908737 525
7966 407891 443
777924 969698 525
114642 593520 470
438005 712451 509
347214 477911 449
290817 394462 441
335454 917497 525
2496 74685 340
609373 759756 509
121195 611626 470
651865 808204 504
455894 657103 509
558830 724264 509
307524 630879 509
7436 288532 443
152430 251676 443
239743 523262 470
136021 257872 443
251361 989516 525
