...................
----------------------------------------------------------------------
Ran 19 tests in 4.565s

OK
Name             Stmts   Miss Branch BrPart  Cover   Missing
------------------------------------------------------------
Collatz.py          34      0     18      0   100%
TestCollatz.py      81      0      0      0   100%
------------------------------------------------------------
TOTAL              115      0     18      0   100%
