1 10 20
100 200 125
201 210 89
900 1000 174
45678 46894 283
12345 23569 282
78965 89275 333
54321 65432 335
11111 21037 279
34567 44678 324
98765 109876 354
23456 33567 308
65432 75543 325
34567 45789 324
54321 65543 335
12345 22345 279
45678 55555 340
56789 67890 335
98765 108765 354
34567 44444 324
23456 34567 311
56789 67789 335
12345 23232 279
78965 88888 333
65432 75321 325
11111 22222 279
54321 64321 335
78965 89012 333
23456 33333 308
45678 55567 340
98765 108654 354
34567 44443 324
11111 21111 279
78965 89123 333
12345 22222 279
54321 64210 335
56789 67788 335
23456 33332 308
45678 55556 340
98765 108653 354
34567 44442 324
11111 21110 279
78965 89122 333
12345 22221 279
54321 64209 335
56789 67787 335
23456 33331 308
45678 55555 340
98765 108652 354
34567 44441 324
11111 21109 279
78965 89121 333
12345 22220 279
54321 64208 335
56789 67786 335
23456 33330 308
45678 55554 340
98765 108651 354
34567 44440 324
11111 21108 279
78965 89120 333
12345 22219 279
54321 64207 335
56789 67785 335
23456 33329 308
45678 55553 340
98765 108650 354
34567 44439 324
11111 21107 279
78965 89119 333
12345 22218 279
54321 64206 335
56789 67784 335
23456 33328 308
45678 55552 340
98765 108649 354
34567 44438 324
11111 21106 279
78965 89118 333
12345 22217 279
54321 64205 335
56789 67783 335
23456 33327 308
45678 55551 340
98765 108648 354
34567 44437 324
11111 21105 279
78965 89117 333
12345 22216 279
54321 64204 335
56789 67782 335
23456 33326 308
45678 55550 340
98765 108647 354
34567 44436 324
11111 21104 279
78965 89116 333
12345 22215 279
54321 64203 335
56789 67781 335
23456 33325 308
45678 55549 340
98765 108646 354
34567 44435 324
11111 21103 279
78965 89115 333
12345 22214 279
54321 64202 335
56789 67780 335
23456 33324 308
45678 55548 340
98765 108645 354
34567 44434 324
11111 21102 279
78965 89114 333
12345 22213 279
54321 64201 335
56789 67779 335
23456 33323 308
45678 55547 340
98765 108644 354
34567 44433 324
11111 21101 279
78965 89113 333
12345 22212 279
54321 64200 335
56789 67778 335
23456 33322 308
45678 55546 340
98765 108643 354
34567 44432 324
11111 21100 279
78965 89112 333
12345 22211 279
54321 64199 335
56789 67777 335
23456 33321 308
45678 55545 340
98765 108642 354
34567 44431 324
11111 21099 279
78965 89111 333
12345 22210 279
54321 64198 335
56789 67776 335
23456 33320 308
45678 55544 340
