1 10 20
100 200 125
201 210 89
900 1000 174
1 1 1
10000 10000 30
999999 1 525
2 888 179
999999 999999 259
1 999999 525
500 500 111
7 7 17
45 54 113
33 333 144
100 9999 262
77 77 23
1 99 119
12 2 20
23 46 112
123 456 144
988 899 174
600 1 144
125 125 109
564 21 144
89 4567 238
65 1000 179
78 56000 340
78 95000 351
7 95000 351
31 79 116
116 170 122
78 87 111
609 90 144
1000 2000 182
4000 1 238
100 99 26
77 6 116
99 18 119
15 9999 262
30 31 107
38 77777 351
66666 66666 131
1 9876 262
1975 2023 157
2001 203 182
5038 9999 262
123 321 131
327 490 144
121 211 125
1 11111 268
2414 1311 183
2141 2948 217
1524 73 182
37382 1238 324
1000 9000 262
1000 7000 262
1 4000 238
6000 5999 187
1212 1100 182
1010 101 179
4444 44444 324
123456 789999 509
8989 9999 260
2873 1924 209
1924 2873 209
2 7 17
1 5 8
9 3 20
3 9 20
1 67 113
1 69 113
100 5 119
84 13 116
123 1245 182
2141 9503 262
7 13 20
7134 3846 262
1177 2212 180
2 27 112
41 141 122
324 759 171
482 627 142
173 891 179
649 285 145
917 563 179
726 314 171
538 146 144
275 881 179
621 387 142
754 219 171
3215 4521 238
2891 3987 238
1764 4289 238
3682 4915 238
2137 4765 238
4387 3291 238
2954 1732 217
4326 2815 238
3874 1265 238
4658 2147 238
73256 51892 340
82741 69482 351
61325 89246 351
75294 62137 330
84912 76538 351
92581 67824 351
72963 81642 351
86923 73164 351
64158 78439 351
79846 61529 351
699 402 145
1212 1111 182
