...................
----------------------------------------------------------------------
Ran 19 tests in 0.458s

OK
Name             Stmts   Miss Branch BrPart  Cover   Missing
------------------------------------------------------------
Collatz.py          52      0     24      0   100%
TestCollatz.py      82      0      0      0   100%
------------------------------------------------------------
TOTAL              134      0     24      0   100%
