.....................
----------------------------------------------------------------------
Ran 21 tests in 0.538s

OK
Name             Stmts   Miss Branch BrPart  Cover   Missing
------------------------------------------------------------
Collatz.py          36      0     14      0   100%
TestCollatz.py      89      0      0      0   100%
------------------------------------------------------------
TOTAL              125      0     14      0   100%
