1 10 20
100 200 125
201 210 89
900 1000 174
10 5 20
7 7 17
1 10000 262
15 16 18
500 505 111
999 1000 112
10 15 18
1000 2000 182
1 20 21
10 50 112
1 6 9
10 20 21
100 150 122
2 7 17
20 30 112
200 250 128
3 8 17
30 40 107
300 350 144
4 9 20
40 50 110
400 450 134
5 10 20
50 60 113
500 550 137
6 11 20
60 70 108
600 650 145
7 12 20
70 80 116
700 750 171
8 13 20
80 90 111
800 850 135
9 14 20
90 100 119
900 950 174
10 15 18
100 110 114
1000 1050 156
11 16 18
110 120 114
1100 1150 151
12 17 18
120 130 122
1200 1250 177
13 18 21
130 140 91
1300 1350 177
14 19 21
140 150 117
1400 1450 172
15 20 21
150 160 86
1500 1550 154
16 21 21
160 170 112
1600 1650 167
17 22 21
170 180 125
1700 1750 180
18 23 21
180 190 107
1800 1850 162
19 24 21
190 200 120
1900 1950 175
20 25 24
200 210 89
2000 2050 157
21 26 24
210 220 115
2100 2150 170
22 27 112
220 230 115
2200 2250 183
23 28 112
230 240 128
2300 2350 183
24 29 112
240 250 110
2400 2450 165
25 30 112
250 260 123
2500 2550 178
26 31 112
260 270 123
2600 2650 191
27 32 112
270 280 92
2700 2750 160
28 33 107
280 290 118
2800 2850 173
29 34 107
290 300 118
2900 2950 217
30 35 107
300 310 87
3000 3050 155
31 36 107
310 320 131
3100 3150 155
32 37 27
320 330 144
3200 3250 168
33 38 27
330 340 113
3300 3350 181
34 39 35
340 350 126
3400 3450 150
35 40 35
350 360 126
3500 3550 150
36 41 110
360 370 95
3600 3650 163
37 42 110
370 380 108
3700 3750 238
38 43 110
380 390 121
3800 3850 176
39 44 110
390 400 121
3900 3950 189
40 45 110
400 410 41
4000 4050 189
41 46 110
410 420 134
4100 4150 189
42 47 105
420 430 103
4200 4250 202
43 48 105
430 440 116
4300 4350 184
44 49 105
440 450 116
4400 4450 184
45 50 105
450 460 129
4500 4550 184
46 51 105
460 470 129
4600 4650 184
47 52 105
470 480 129
4700 4750 166
48 53 25
480 490 142
4800 4850 166
49 54 113
490 500 142
