1 10 20
100 200 125
201 210 89
900 1000 174
123 456 144
789 321 171
234 567 144
876 543 179
345 678 145
654 321 145
456 789 171
987 654 179
567 890 179
321 987 179
789 123 171
678 912 179
432 198 144
876 123 179
345 789 171
987 345 179
654 789 171
234 567 144
789 432 171
567 123 144
876 234 179
321 456 144
789 654 171
567 890 179
345 678 145
987 321 179
234 567 144
789 123 171
876 543 179
432 198 144
321 987 179
567 890 179
789 432 171
987 654 179
654 321 145
234 567 144
876 123 179
345 789 171
567 123 144
789 654 171
432 198 144
876 234 179
321 456 144
345 678 145
987 345 179
234 567 144
789 123 171
567 890 179
876 543 179
789 321 171
876 123 179
567 890 179
987 654 179
345 678 145
234 567 144
789 432 171
876 234 179
321 987 179
567 123 144
432 198 144
789 654 171
234 567 144
987 345 179
567 890 179
345 789 171
876 543 179
321 456 144
876 123 179
567 123 144
789 321 171
987 654 179
234 567 144
876 234 179
432 198 144
345 678 145
567 890 179
789 432 171
654 321 145
234 567 144
789 123 171
876 543 179
321 987 179
987 345 179
567 890 179
345 789 171
876 123 179
432 198 144
234 567 144
789 654 171
567 123 144
876 234 179
789 321 171
321 456 144
345 678 145
987 654 179
432 198 144
321 456 144
123 456 144
789 321 171
234 567 144
876 543 179
345 678 145
654 321 145
456 789 171
987 654 179
567 890 179
321 987 179
789 123 171
678 912 179
432 198 144
876 123 179
345 789 171
987 345 179
654 789 171
234 567 144
789 432 171
567 123 144
876 234 179
321 456 144
789 654 171
567 890 179
234 567 144
789 123 171
987 345 179
876 234 179
432 198 144
234 567 144
567 890 179
876 123 179
789 432 171
987 654 179
321 987 179
345 789 171
567 123 144
876 234 179
789 321 171
234 567 144
432 198 144
567 890 179
345 678 145
876 543 179
987 345 179
1532 8492 262
2789 6324 262
5123 7942 262
1864 9423 262
3241 5698 238
2312 6824 262
7542 8921 252
3102 4789 238
2438 9285 262
1276 6314 262
1001 1001 143
1 1 1
2 2 2
999999 999999 259
900000 950000 507
950000 900000 507
1 999999 525
999999 1 525
10000 999999 525
999999 10000 525
2222 300323 443
300323 2222 443
111111 898989 525
898989 111111 525
777777 787777 437
787777 777777 437
89898 121212 354
89898 212121 383
89898 323232 443
89898 434343 449
89898 545454 470
89898 656565 509
89898 767676 509
89898 898989 525
100 111111 354
200 111111 354
300 111111 354
400 111111 354
500 111111 354
1021 634634 509
1201 436436 449
